{
  "count": 1281,
  "next": "https://pokeapi.co/api/v2/pokemon?offset=10&limit=5",
  "previous": "https://pokeapi.co/api/v2/pokemon?offset=0&limit=5",
  "results": [
    {
      "name": "charizard",
      "url": "https://pokeapi.co/api/v2/pokemon/6/"
    },
    {
      "name": "squirtle",
      "url": "https://pokeapi.co/api/v2/pokemon/7/"
    },
    {
      "name": "wartortle",
      "url": "https://pokeapi.co/api/v2/pokemon/8/"
    },
    {
      "name": "blastoise",
      "url": "https://pokeapi.co/api/v2/pokemon/9/"
    },
    {
      "name": "caterpie",
      "url": "https://pokeapi.co/api/v2/pokemon/10/"
    }
  ]
}
